...............
----------------------------------------------------------------------
Ran 15 tests in 2.697s

OK
Name             Stmts   Miss Branch BrPart  Cover   Missing
------------------------------------------------------------
Collatz.py          42      0     14      0   100%
TestCollatz.py      64      0      0      0   100%
------------------------------------------------------------
TOTAL              106      0     14      0   100%
