1 10 20
100 200 125
201 210 89
900 1000 174
1 1 1
10 1 20
210 201 89
113383 113383 248
999999 1 525
3474 7775 262
8681 5028 262
2454 8860 262
6345 4371 262
8124 4947 262
5444 6417 262
9216 3096 262
9229 7856 252
3988 9459 262
9202 925 262
1386 2402 183
5056 3726 215
1514 1439 172
5284 1264 238
6154 3840 236
3354 9570 262
4542 1212 238
9139 9996 260
9035 5694 262
8005 4581 262
8336 7898 252
1257 839 182
1911 4238 238
4751 3881 215
6656 2302 262
293 6080 238
4857 6023 236
5963 4144 236
4086 3331 238
294 8552 262
6127 6656 262
5778 3322 238
1380 9966 262
9639 2133 262
6873 9254 257
8848 1923 262
1693 4557 238
2977 9007 262
2630 8435 262
2257 6920 262
351 4243 238
9543 7827 260
8432 5875 262
4600 206 238
765 7933 262
3557 1701 217
3821 6812 262
7798 1186 262
2873 1763 209
7030 1149 262
4564 3823 215
9897 7573 260
3873 4532 215
2809 9905 262
9025 67 262
6901 7880 257
8064 9126 247
2632 4307 238
229 4186 238
2508 1514 209
7489 9789 260
2906 9946 262
6907 8346 257
4498 6708 262
8882 7172 252
8607 5997 262
3954 7316 262
4556 1681 238
1861 9569 262
1988 9859 262
5137 629 238
9026 511 262
7835 7979 252
3645 9936 262
2448 237 183
4013 6262 262
7541 2431 262
2 894 179
6482 4469 262
9288 4886 262
40 5829 238
1710 3774 238
28 882 179
2559 4297 238
178 5756 238
5887 297 238
6220 3410 262
5886 9720 262
5117 6424 262
4911 4526 197
2121 6018 238
6294 5461 262
6171 9492 262
5895 6284 262
8031 1302 262
3054 5045 238
9747 2023 262
6626 3931 262
1064 7477 262
4833 6792 262
1089 9161 262
6770 9329 260
952 7208 262
1654 2772 209
404 7910 262
2764 4719 238
4216 6219 262
1693 5606 238
3720 9444 262
3055 4672 238
9414 5296 262
8417 387 262
6866 5908 262
2377 2378 77
7169 155 262
3593 7580 262
3352 8031 262
1924 57 182
7290 9145 252
4060 9083 262
4842 1644 238
9732 7185 260
733 4301 238
6618 5408 262
4292 3885 202
5846 5026 236
5283 5916 236
3245 179 217
5568 7320 262
3475 1722 217
950 7597 262
5573 7514 262
3470 6107 238
6962 6546 257
3320 7473 262
2948 4585 238
7648 6065 262
5467 1074 238
3191 2980 199
9706 2883 262
3380 2111 217
9936 93 262
6561 853 262
982 7870 262
9223 9865 260
7089 4865 262
621 154 144
5646 9541 262
3993 8408 262
