1 10 20
100 200 125
201 210 89
900 1000 174
1 1 1
2 2 2
3 3 8
2 1 2
3 2 8
3 1 8
1 2 2
1 3 8
1 1 1
10 20 21
10 200 125
47 5 112
3 100 119
1000 200 179
200 1000 179
49 87 116
35 35 14
100 100 26
100 101 26
100 102 26
101 100 26
102 101 26
102 100 26
87 870 171
90 87 31
87 90 31
46 65 113
6383 3739 262
657 2936 217
957 2094 182
940 736 179
100000 100000 129
100000 100001 129
100001 100000 129
100000 100010 310
100010 100000 310
20000 20001 168
200001 20000 383
20000 21000 256
21000 20000 256
730 765 153
765 730 153
6392 9573 260
97 84 119
827 279 171
946 482 179
162 103 122
918 5639 238
957 263 179
485 283 144
684 263 145
96043 12673 351
5829 4584 236
9 90 116
90 9 116
1 1 1
1 1 1
1 1 1
75 80 36
8276 5890 262
960 5273 238
869 364 171
968 637 179
283 555 144
903 758 179
918 3475 217
960 2367 183
694 274 145
8674 2748 262
738 968 179
239 537 144
819 759 153
2910 1928 209
3829 1728 238
858 236 171
8593 2187 262
9850 2878 262
726 589 171
8690 2638 262
8590 6738 257
748 364 171
859 2739 209
5945 2873 238
839 585 171
820 2103 182
958 283 179
758 948 179
726 4902 238
958373 958378 246
7283 9402 260
7584 8293 252
895604 895604 202
82193 74943 351
8293 4849 262
9129 4839 262
94903 92193 315
857 2382 183
9473 1273 262
8473 9387 260
1284 728 182
9 8 20
3 30 112
30 3 112
78 87 111
21 21 8
12 21 21
500000 999999 525
999999 999998 259
999998 999999 259
999999 500000 525
900000 999999 507
999999 900000 507
500000 600000 470
700000 600000 509
