1 10 20
100 200 125
201 210 89
900 1000 174
11 11 15
1 1 1
200 200 27
2222 2222 33
1111 1111 32
123456 654321 509
877828 475754 525
61672 875781 525
323566 794581 509
297039 106655 443
17739 187624 383
804956 222594 509
603701 838820 525
698920 707816 504
257142 253985 363
940098 173754 525
201617 757858 509
466715 201809 449
772683 542827 509
907481 830796 525
139037 719352 509
154361 376150 443
415424 959820 525
821223 665224 504
633369 46454 509
40852 279005 443
638174 977381 525
957399 764183 525
801770 427651 509
109298 478413 449
692276 484980 509
3095 836854 509
421439 899935 525
958144 223731 525
494105 690615 509
190477 983248 525
453305 881436 525
680923 678198 380
533407 344764 470
368477 887343 525
219524 722833 509
270053 903157 525
413572 507826 444
974653 451563 525
261637 796873 509
694974 356620 509
230055 693214 509
312891 479949 449
497425 774242 509
186425 896006 525
134839 431781 449
406847 731258 509
729082 272053 509
928805 461663 525
429793 347252 449
698933 250255 509
210780 438645 449
347189 614452 470
532053 652068 509
692950 800110 504
174897 767127 509
198084 885175 525
274723 743793 509
729033 740176 424
103717 941136 525
953850 962070 414
69724 558458 470
70532 199540 383
166566 88548 383
965431 681494 525
918322 626717 525
872419 191615 525
566617 390847 470
377085 372192 423
211172 571141 470
43058 610595 470
982775 849356 507
670606 392986 509
738155 302543 509
504208 342298 449
253443 587025 470
90843 671668 509
264355 366962 441
334410 98684 443
155295 539282 470
427081 521524 470
292976 254335 407
209066 690956 509
112603 157270 383
929190 699212 525
592241 801855 509
610927 997516 525
832347 423922 509
716401 778664 468
467010 392352 449
858925 870316 388
875215 912844 476
855484 71390 525
960663 367975 525
825158 837805 525
832638 850064 525
703973 698677 411
807132 635824 504
304145 106019 443
647455 962751 525
962530 217973 525
708418 40013 509
946451 134094 525
496628 777864 509
23220 519427 470
269076 309519 407
589665 414435 470
4878 546771 470
996587 897250 507
44934 317909 443
84112 576563 470
848224 175925 525
472515 234246 449
540489 680231 509
844511 703732 525
182347 694137 509
907250 944107 507
856034 875586 432
238125 603016 470
635568 751374 504
381985 197141 443
332644 11125 443
387661 281201 441
740112 843890 525
110069 126854 349
527220 925594 525
345156 10681 443
319466 332154 384
466698 963669 525
133963 299832 443
191744 625568 470
286312 478717 449
589683 204562 470
324359 794741 509
921108 428446 525
760194 394774 509
660193 821754 504
412440 904488 525
206112 782184 509
570732 3402 470
116230 418082 449
974696 100036 525
771600 429681 509
66005 6513 340
555347 434836 470
998340 424735 525
584745 976893 525
972318 379825 525
315733 892286 525
117375 396853 443
415413 430071 418
1 999999 525
